module gitlab.com/knaydenov/koolbox

go 1.23.0

toolchain go1.23.4

require (
	github.com/BurntSushi/toml v1.4.0
	github.com/IBM/fluent-forward-go v0.2.2
	github.com/Masterminds/sprig/v3 v3.3.0
	github.com/cenkalti/backoff/v4 v4.3.0
	github.com/fatih/camelcase v1.0.0
	github.com/go-kit/kit v0.13.0
	github.com/go-ping/ping v1.2.0
	github.com/gobwas/glob v0.2.3
	github.com/hashicorp/vault/api v1.15.0
	github.com/joho/godotenv v1.5.1
	github.com/leodido/go-syslog/v4 v4.2.0
	github.com/mcuadros/go-defaults v1.2.0
	github.com/mitchellh/mapstructure v1.5.0
	github.com/nicksnyder/go-i18n/v2 v2.4.1
	github.com/orcaman/concurrent-map/v2 v2.0.1
	github.com/santhosh-tekuri/jsonschema/v5 v5.3.1
	github.com/spf13/cobra v1.8.1
	github.com/spf13/viper v1.19.0
	github.com/stretchr/testify v1.10.0
	golang.org/x/text v0.21.0
	gopkg.in/yaml.v3 v3.0.1
	helm.sh/helm/v3 v3.16.4
	k8s.io/apimachinery v0.32.0
	k8s.io/client-go v0.32.0
)

require (
	github.com/Masterminds/goutils v1.1.1 // indirect
	github.com/expr-lang/expr v1.16.9
	github.com/huandu/xstrings v1.5.0 // indirect
	github.com/mitchellh/copystructure v1.2.0 // indirect
)

require (
	dario.cat/mergo v1.0.1 // indirect
	github.com/Masterminds/semver/v3 v3.3.1 // indirect
	github.com/cpuguy83/go-md2man/v2 v2.0.6 // indirect
	github.com/davecgh/go-spew v1.1.2-0.20180830191138-d8f796af33cc // indirect
	github.com/emicklei/go-restful/v3 v3.12.1 // indirect
	github.com/fsnotify/fsnotify v1.8.0 // indirect
	github.com/fxamacker/cbor/v2 v2.7.0 // indirect
	github.com/go-jose/go-jose/v4 v4.0.4 // indirect
	github.com/go-kit/log v0.2.1 // indirect
	github.com/go-logfmt/logfmt v0.6.0 // indirect
	github.com/go-logr/logr v1.4.2 // indirect
	github.com/go-openapi/jsonpointer v0.21.0 // indirect
	github.com/go-openapi/jsonreference v0.21.0 // indirect
	github.com/go-openapi/swag v0.23.0 // indirect
	github.com/go-test/deep v1.1.1 // indirect
	github.com/gogo/protobuf v1.3.2 // indirect
	github.com/golang/protobuf v1.5.4 // indirect
	github.com/google/gnostic-models v0.6.9 // indirect
	github.com/google/go-cmp v0.6.0 // indirect
	github.com/google/gofuzz v1.2.0 // indirect
	github.com/google/uuid v1.6.0 // indirect
	github.com/gorilla/websocket v1.5.3 // indirect
	github.com/hashicorp/errwrap v1.1.0 // indirect
	github.com/hashicorp/go-cleanhttp v0.5.2 // indirect
	github.com/hashicorp/go-multierror v1.1.1 // indirect
	github.com/hashicorp/go-retryablehttp v0.7.7 // indirect
	github.com/hashicorp/go-rootcerts v1.0.2 // indirect
	github.com/hashicorp/go-secure-stdlib/parseutil v0.1.8 // indirect
	github.com/hashicorp/go-secure-stdlib/strutil v0.1.2 // indirect
	github.com/hashicorp/go-sockaddr v1.0.7 // indirect
	github.com/hashicorp/hcl v1.0.1-vault-7 // indirect
	github.com/inconshreveable/mousetrap v1.1.0 // indirect
	github.com/josharian/intern v1.0.0 // indirect
	github.com/json-iterator/go v1.1.12 // indirect
	github.com/magiconair/properties v1.8.9 // indirect
	github.com/mailru/easyjson v0.9.0 // indirect
	github.com/mitchellh/go-homedir v1.1.0 // indirect
	github.com/mitchellh/reflectwalk v1.0.2 // indirect
	github.com/modern-go/concurrent v0.0.0-20180306012644-bacd9c7ef1dd // indirect
	github.com/modern-go/reflect2 v1.0.2 // indirect
	github.com/munnerz/goautoneg v0.0.0-20191010083416-a7dc8b61c822 // indirect
	github.com/pelletier/go-toml/v2 v2.2.3 // indirect
	github.com/philhofer/fwd v1.1.3-0.20240916144458-20a13a1f6b7c // indirect
	github.com/pkg/errors v0.9.1 // indirect
	github.com/pmezard/go-difflib v1.0.1-0.20181226105442-5d4384ee4fb2 // indirect
	github.com/russross/blackfriday/v2 v2.1.0 // indirect
	github.com/ryanuber/go-glob v1.0.0 // indirect
	github.com/sagikazarmark/locafero v0.6.0 // indirect
	github.com/sagikazarmark/slog-shim v0.1.0 // indirect
	github.com/shopspring/decimal v1.4.0 // indirect
	github.com/sourcegraph/conc v0.3.0 // indirect
	github.com/spf13/afero v1.11.0 // indirect
	github.com/spf13/cast v1.7.1 // indirect
	github.com/spf13/pflag v1.0.5 // indirect
	github.com/subosito/gotenv v1.6.0 // indirect
	github.com/tinylib/msgp v1.2.5 // indirect
	github.com/x448/float16 v0.8.4 // indirect
	go.uber.org/multierr v1.11.0 // indirect
	golang.org/x/crypto v0.31.0 // indirect
	golang.org/x/exp v0.0.0-20241217172543-b2144cdd0a67 // indirect
	golang.org/x/net v0.33.0 // indirect
	golang.org/x/oauth2 v0.24.0 // indirect
	golang.org/x/sync v0.10.0 // indirect
	golang.org/x/sys v0.28.0 // indirect
	golang.org/x/term v0.27.0 // indirect
	golang.org/x/time v0.8.0 // indirect
	google.golang.org/protobuf v1.36.1 // indirect
	gopkg.in/evanphx/json-patch.v4 v4.12.0 // indirect
	gopkg.in/inf.v0 v0.9.1 // indirect
	gopkg.in/ini.v1 v1.67.0 // indirect
	k8s.io/api v0.32.0 // indirect
	k8s.io/klog/v2 v2.130.1 // indirect
	k8s.io/kube-openapi v0.0.0-20241212222426-2c72e554b1e7 // indirect
	k8s.io/utils v0.0.0-20241210054802-24370beab758 // indirect
	sigs.k8s.io/json v0.0.0-20241014173422-cfa47c3a1cc8 // indirect
	sigs.k8s.io/structured-merge-diff/v4 v4.5.0 // indirect
	sigs.k8s.io/yaml v1.4.0 // indirect
)
